{
  "posts": [
    {
      "name": "yeasin",
      "address": "Mohakhali DOHS",
      "phone": "+8801719072643",
      "id": 1
    },
    {
      "id": "2",
      "name": "yeasin"
    },
    {
      "id": "3",
      "name": "yeasin"
    },
    {
      "id": 4,
      "name": "John Doe"
    },
    {
      "id": 5,
      "name": "John Doe"
    },
    {
      "id": 6,
      "name": "John Doe",
      "address": "Las Vagus"
    }
  ],
  "comments": [
    {
      "id": 1,
      "body": "some comment",
      "postId": 1
    }
  ],
  "profile": {
    "name": "typicode"
  }
}